Case #1: 13
Case #2: 14
Case #3: Bad magician!
Case #4: Volunteer cheated!
Case #5: 9
Case #6: 16
Case #7: 1
Case #8: Volunteer cheated!
Case #9: Volunteer cheated!
Case #10: Bad magician!
Case #11: Volunteer cheated!
Case #12: 13
Case #13: 6
Case #14: Volunteer cheated!
Case #15: 4
Case #16: Bad magician!
Case #17: 12
Case #18: Bad magician!
Case #19: Bad magician!
Case #20: 16
Case #21: 14
Case #22: Volunteer cheated!
Case #23: Volunteer cheated!
Case #24: Volunteer cheated!
Case #25: Bad magician!
Case #26: Bad magician!
Case #27: Volunteer cheated!
Case #28: 6
Case #29: Bad magician!
Case #30: Bad magician!
Case #31: Volunteer cheated!
Case #32: 10
Case #33: Volunteer cheated!
Case #34: Volunteer cheated!
Case #35: Bad magician!
Case #36: Bad magician!
Case #37: 11
Case #38: 5
Case #39: Bad magician!
Case #40: Bad magician!
Case #41: Bad magician!
Case #42: 9
Case #43: Volunteer cheated!
Case #44: Volunteer cheated!
Case #45: Bad magician!
Case #46: Volunteer cheated!
Case #47: Bad magician!
Case #48: Bad magician!
Case #49: Bad magician!
Case #50: 3
Case #51: Bad magician!
Case #52: Bad magician!
Case #53: Volunteer cheated!
Case #54: Bad magician!
Case #55: Bad magician!
Case #56: Volunteer cheated!
Case #57: 15
Case #58: 8
Case #59: Volunteer cheated!
Case #60: Volunteer cheated!
Case #61: Bad magician!
Case #62: Bad magician!
Case #63: 16
Case #64: Bad magician!
Case #65: Bad magician!
Case #66: 13
Case #67: Bad magician!
Case #68: 11
Case #69: Volunteer cheated!
Case #70: Bad magician!
Case #71: 9
Case #72: Volunteer cheated!
Case #73: Bad magician!
Case #74: 7
Case #75: 2
Case #76: Bad magician!
Case #77: 3
Case #78: 11
Case #79: Volunteer cheated!
Case #80: Volunteer cheated!
Case #81: 6
Case #82: Volunteer cheated!
Case #83: 4
Case #84: 2
Case #85: Volunteer cheated!
Case #86: Volunteer cheated!
Case #87: 10
Case #88: 1
Case #89: 11
Case #90: 14
Case #91: 11
Case #92: Volunteer cheated!
Case #93: Volunteer cheated!
Case #94: Bad magician!
Case #95: 12
Case #96: 5
Case #97: 11
Case #98: Bad magician!
Case #99: Volunteer cheated!
Case #100: 9