Case #1: 22910.6400596
Case #2: 76.2923100
Case #3: 27696.2150748
Case #4: 26941.8730183
Case #5: 480.5710423
Case #6: 194.7531005
Case #7: 26788.1243172
Case #8: 0.6867845
Case #9: 1430.8270712
Case #10: 382.9300000
Case #11: 26329.5605809
Case #12: 26029.1159894
Case #13: 256.0061213
Case #14: 24934.7652748
Case #15: 24237.8761637
Case #16: 27861.6068811
Case #17: 4531.0000000
Case #18: 22769.2391754
Case #19: 322.6871873
Case #20: 28001.8322281
Case #21: 3359.0000000
Case #22: 347.1788500
Case #23: 27656.8805310
Case #24: 9.6878716
Case #25: 5009.6764123
Case #26: 1.0269500
Case #27: 272.1265000
Case #28: 1583.7615300
Case #29: 388.8929750
Case #30: 23049.0835783
Case #31: 556.0082650
Case #32: 24431.4214637
Case #33: 21.2144692
Case #34: 22548.4013968
Case #35: 7263.0000000
Case #36: 859.7409002
Case #37: 23244.5090329
Case #38: 26340.6863525
Case #39: 22954.6131720
Case #40: 164.6445050
Case #41: 28015.6010654
Case #42: 185.4293203
Case #43: 3313.0000000
Case #44: 27225.0460920
Case #45: 495.3366850
Case #46: 239.9760900
Case #47: 25685.4317980
Case #48: 24261.4506941
Case #49: 364.8803303
Case #50: 22535.8172909
Case #51: 168.1125484
Case #52: 99.3592050
Case #53: 24883.5869821
Case #54: 6871.2672619
Case #55: 22574.9539070
Case #56: 0.6683310
Case #57: 87.3421990
Case #58: 2162.0000000
Case #59: 23000.0697767
Case #60: 92.9100000
Case #61: 23269.6006348
Case #62: 2698.0660377
Case #63: 23308.8314407
Case #64: 2135.2316886
Case #65: 26858.9983714
Case #66: 25376.5419099
Case #67: 2811.7058824
Case #68: 338.8490930
Case #69: 0.6636934
Case #70: 233.1500000
Case #71: 273.5000000
Case #72: 60.9407700
Case #73: 2058.1011785
Case #74: 23723.0346996
Case #75: 2711.6052632
Case #76: 348.5385750
Case #77: 587.6085138
Case #78: 25505.5176277
Case #79: 269.8136470
Case #80: 3809.0000000
Case #81: 23060.5186762
Case #82: 69.9074500
Case #83: 1210.7944275
Case #84: 7.0092623
Case #85: 27995.9360751
Case #86: 125.1899650
Case #87: 150.0000000
Case #88: 331.1786100
Case #89: 272.1830614
Case #90: 71.4094950
Case #91: 98.6669916
Case #92: 4483.1870809
Case #93: 0.6542613
Case #94: 4.2505046
Case #95: 590.5000000
Case #96: 422.2600000
Case #97: 4531.5101855
Case #98: 323.3830279
Case #99: 27167.0665593
Case #100: 13.7900800